COMP3222/COMP3222LAB901/simulation/qsim/LAB901.msim.vcd
$comment
	File created using the following command:
		vcd file LAB901.msim.vcd -direction
$end
$date
	Thu Oct 12 14:11:46 2017
$end
$version
	ModelSim Version 10.1d
$end
$timescale
	1ps
$end
$scope module LAB901_vlg_vec_tst $end
$var reg 1 ! Clock $end
$var reg 9 " DIN [8:0] $end
$var reg 1 # Resetn $end
$var reg 1 $ Run $end
$var wire 1 % BusWires [8] $end
$var wire 1 & BusWires [7] $end
$var wire 1 ' BusWires [6] $end
$var wire 1 ( BusWires [5] $end
$var wire 1 ) BusWires [4] $end
$var wire 1 * BusWires [3] $end
$var wire 1 + BusWires [2] $end
$var wire 1 , BusWires [1] $end
$var wire 1 - BusWires [0] $end
$var wire 1 . Done $end
$var wire 1 / sampler $end
$scope module i1 $end
$var wire 1 0 gnd $end
$var wire 1 1 vcc $end
$var wire 1 2 unknown $end
$var tri1 1 3 devclrn $end
$var tri1 1 4 devpor $end
$var tri1 1 5 devoe $end
$var wire 1 6 regG|Q[0]~10_cout $end
$var wire 1 7 regG|Q[0]~11_combout $end
$var wire 1 8 regG|Q[0]~12 $end
$var wire 1 9 regG|Q[1]~13_combout $end
$var wire 1 : regG|Q[1]~14 $end
$var wire 1 ; regG|Q[2]~15_combout $end
$var wire 1 < regG|Q[2]~16 $end
$var wire 1 = regG|Q[3]~17_combout $end
$var wire 1 > regG|Q[3]~18 $end
$var wire 1 ? regG|Q[4]~19_combout $end
$var wire 1 @ regG|Q[4]~20 $end
$var wire 1 A regG|Q[5]~21_combout $end
$var wire 1 B regG|Q[5]~22 $end
$var wire 1 C regG|Q[6]~23_combout $end
$var wire 1 D regG|Q[6]~24 $end
$var wire 1 E regG|Q[7]~25_combout $end
$var wire 1 F regG|Q[7]~26 $end
$var wire 1 G regG|Q[8]~27_combout $end
$var wire 1 H Selector27~3_combout $end
$var wire 1 I WideNor0~0_combout $end
$var wire 1 J WideNor0~1_combout $end
$var wire 1 K Selector26~2_combout $end
$var wire 1 L Selector25~1_combout $end
$var wire 1 M Selector24~4_combout $end
$var wire 1 N Selector22~4_combout $end
$var wire 1 O Selector20~3_combout $end
$var wire 1 P Selector19~3_combout $end
$var wire 1 Q Mux28~0_combout $end
$var wire 1 R Add0~0_combout $end
$var wire 1 S Add0~1_combout $end
$var wire 1 T Add0~2_combout $end
$var wire 1 U Add0~3_combout $end
$var wire 1 V Add0~4_combout $end
$var wire 1 W Add0~5_combout $end
$var wire 1 X Add0~6_combout $end
$var wire 1 Y Add0~7_combout $end
$var wire 1 Z Add0~8_combout $end
$var wire 1 [ Clock~combout $end
$var wire 1 \ Clock~clkctrl_outclk $end
$var wire 1 ] reg_0|Q[0]~feeder_combout $end
$var wire 1 ^ reg_0|Q[1]~feeder_combout $end
$var wire 1 _ reg_5|Q[4]~feeder_combout $end
$var wire 1 ` reg_4|Q[4]~feeder_combout $end
$var wire 1 a regA|Q[4]~feeder_combout $end
$var wire 1 b reg_6|Q[5]~feeder_combout $end
$var wire 1 c reg_4|Q[7]~feeder_combout $end
$var wire 1 d reg_0|Q[8]~feeder_combout $end
$var wire 1 e reg_5|Q[8]~feeder_combout $end
$var wire 1 f Selector1~0_combout $end
$var wire 1 g Resetn~combout $end
$var wire 1 h Resetn~clkctrl_outclk $end
$var wire 1 i Tstep_Q.T3~regout $end
$var wire 1 j Run~combout $end
$var wire 1 k Tstep_D.T1~0_combout $end
$var wire 1 l Tstep_Q.T1~regout $end
$var wire 1 m Selector0~0_combout $end
$var wire 1 n Selector0~1_combout $end
$var wire 1 o Tstep_Q.T0~regout $end
$var wire 1 p Tstep_Q.T0~clkctrl_outclk $end
$var wire 1 q Selector18~0_combout $end
$var wire 1 r Ain~0_combout $end
$var wire 1 s Selector12~0_combout $end
$var wire 1 t Tstep_D.T2~0_combout $end
$var wire 1 u Tstep_Q.T2~regout $end
$var wire 1 v Gin~0_combout $end
$var wire 1 w Extern~0_combout $end
$var wire 1 x Selector11~0_combout $end
$var wire 1 y Selector12~1_combout $end
$var wire 1 z Selector13~0_combout $end
$var wire 1 { Selector13~1_combout $end
$var wire 1 | Gout~0_combout $end
$var wire 1 } Equal0~0_combout $end
$var wire 1 ~ Selector16~0_combout $end
$var wire 1 !! Selector16~1_combout $end
$var wire 1 "! Selector16~2_combout $end
$var wire 1 #! Selector14~0_combout $end
$var wire 1 $! Selector14~1_combout $end
$var wire 1 %! Selector15~0_combout $end
$var wire 1 &! Selector15~1_combout $end
$var wire 1 '! Equal7~0_combout $end
$var wire 1 (! Selector11~1_combout $end
$var wire 1 )! Selector11~2_combout $end
$var wire 1 *! Equal2~0_combout $end
$var wire 1 +! Equal3~0_combout $end
$var wire 1 ,! Selector5~0_combout $end
$var wire 1 -! Equal2~1_combout $end
$var wire 1 .! Selector27~0_combout $end
$var wire 1 /! Selector17~0_combout $end
$var wire 1 0! Selector17~1_combout $end
$var wire 1 1! Selector10~0_combout $end
$var wire 1 2! Selector10~1_combout $end
$var wire 1 3! Equal4~0_combout $end
$var wire 1 4! Equal4~1_combout $end
$var wire 1 5! Selector6~0_combout $end
$var wire 1 6! Equal0~1_combout $end
$var wire 1 7! Equal0~2_combout $end
$var wire 1 8! Equal0~3_combout $end
$var wire 1 9! Selector27~4_combout $end
$var wire 1 :! Selector3~0_combout $end
$var wire 1 ;! Equal1~0_combout $end
$var wire 1 <! Equal1~1_combout $end
$var wire 1 =! Selector27~2_combout $end
$var wire 1 >! Equal5~0_combout $end
$var wire 1 ?! Equal5~1_combout $end
$var wire 1 @! Selector7~0_combout $end
$var wire 1 A! Equal6~0_combout $end
$var wire 1 B! Selector27~1_combout $end
$var wire 1 C! Selector27~5_combout $end
$var wire 1 D! WideNor0~2_combout $end
$var wire 1 E! WideNor0~combout $end
$var wire 1 F! Selector27~6_combout $end
$var wire 1 G! Selector4~0_combout $end
$var wire 1 H! Selector26~0_combout $end
$var wire 1 I! Selector9~0_combout $end
$var wire 1 J! Equal7~1_combout $end
$var wire 1 K! Selector26~3_combout $end
$var wire 1 L! Selector8~0_combout $end
$var wire 1 M! Selector26~1_combout $end
$var wire 1 N! Selector26~4_combout $end
$var wire 1 O! Selector26~5_combout $end
$var wire 1 P! Selector26~6_combout $end
$var wire 1 Q! Selector25~0_combout $end
$var wire 1 R! Selector25~2_combout $end
$var wire 1 S! Selector2~0_combout $end
$var wire 1 T! Selector25~4_combout $end
$var wire 1 U! Selector25~3_combout $end
$var wire 1 V! Selector25~5_combout $end
$var wire 1 W! Selector25~6_combout $end
$var wire 1 X! reg_3|Q[3]~feeder_combout $end
$var wire 1 Y! Selector24~0_combout $end
$var wire 1 Z! Selector24~2_combout $end
$var wire 1 [! Selector24~3_combout $end
$var wire 1 \! Selector24~1_combout $end
$var wire 1 ]! Selector24~5_combout $end
$var wire 1 ^! Selector24~6_combout $end
$var wire 1 _! reg_2|Q[4]~feeder_combout $end
$var wire 1 `! Selector23~0_combout $end
$var wire 1 a! Selector23~4_combout $end
$var wire 1 b! Selector23~2_combout $end
$var wire 1 c! Selector23~3_combout $end
$var wire 1 d! reg_6|Q[4]~feeder_combout $end
$var wire 1 e! Selector23~1_combout $end
$var wire 1 f! Selector23~5_combout $end
$var wire 1 g! Selector23~6_combout $end
$var wire 1 h! Selector22~0_combout $end
$var wire 1 i! Selector22~2_combout $end
$var wire 1 j! Selector22~3_combout $end
$var wire 1 k! Selector22~1_combout $end
$var wire 1 l! Selector22~5_combout $end
$var wire 1 m! Selector22~6_combout $end
$var wire 1 n! Selector21~0_combout $end
$var wire 1 o! Selector21~4_combout $end
$var wire 1 p! Selector21~2_combout $end
$var wire 1 q! Selector21~3_combout $end
$var wire 1 r! reg_5|Q[6]~feeder_combout $end
$var wire 1 s! Selector21~1_combout $end
$var wire 1 t! Selector21~5_combout $end
$var wire 1 u! Selector21~6_combout $end
$var wire 1 v! Selector20~0_combout $end
$var wire 1 w! Selector20~4_combout $end
$var wire 1 x! Selector20~2_combout $end
$var wire 1 y! Selector20~1_combout $end
$var wire 1 z! Selector20~5_combout $end
$var wire 1 {! Selector20~6_combout $end
$var wire 1 |! Selector19~0_combout $end
$var wire 1 }! Selector19~2_combout $end
$var wire 1 ~! reg_6|Q[8]~feeder_combout $end
$var wire 1 !" Selector19~1_combout $end
$var wire 1 "" Selector19~4_combout $end
$var wire 1 #" Selector19~5_combout $end
$var wire 1 $" Selector19~6_combout $end
$var wire 1 %" reg_1|Q [8] $end
$var wire 1 &" reg_1|Q [7] $end
$var wire 1 '" reg_1|Q [6] $end
$var wire 1 (" reg_1|Q [5] $end
$var wire 1 )" reg_1|Q [4] $end
$var wire 1 *" reg_1|Q [3] $end
$var wire 1 +" reg_1|Q [2] $end
$var wire 1 ," reg_1|Q [1] $end
$var wire 1 -" reg_1|Q [0] $end
$var wire 1 ." reg_3|Q [8] $end
$var wire 1 /" reg_3|Q [7] $end
$var wire 1 0" reg_3|Q [6] $end
$var wire 1 1" reg_3|Q [5] $end
$var wire 1 2" reg_3|Q [4] $end
$var wire 1 3" reg_3|Q [3] $end
$var wire 1 4" reg_3|Q [2] $end
$var wire 1 5" reg_3|Q [1] $end
$var wire 1 6" reg_3|Q [0] $end
$var wire 1 7" reg_2|Q [8] $end
$var wire 1 8" reg_2|Q [7] $end
$var wire 1 9" reg_2|Q [6] $end
$var wire 1 :" reg_2|Q [5] $end
$var wire 1 ;" reg_2|Q [4] $end
$var wire 1 <" reg_2|Q [3] $end
$var wire 1 =" reg_2|Q [2] $end
$var wire 1 >" reg_2|Q [1] $end
$var wire 1 ?" reg_2|Q [0] $end
$var wire 1 @" reg_0|Q [8] $end
$var wire 1 A" reg_0|Q [7] $end
$var wire 1 B" reg_0|Q [6] $end
$var wire 1 C" reg_0|Q [5] $end
$var wire 1 D" reg_0|Q [4] $end
$var wire 1 E" reg_0|Q [3] $end
$var wire 1 F" reg_0|Q [2] $end
$var wire 1 G" reg_0|Q [1] $end
$var wire 1 H" reg_0|Q [0] $end
$var wire 1 I" regG|Q [8] $end
$var wire 1 J" regG|Q [7] $end
$var wire 1 K" regG|Q [6] $end
$var wire 1 L" regG|Q [5] $end
$var wire 1 M" regG|Q [4] $end
$var wire 1 N" regG|Q [3] $end
$var wire 1 O" regG|Q [2] $end
$var wire 1 P" regG|Q [1] $end
$var wire 1 Q" regG|Q [0] $end
$var wire 1 R" regA|Q [8] $end
$var wire 1 S" regA|Q [7] $end
$var wire 1 T" regA|Q [6] $end
$var wire 1 U" regA|Q [5] $end
$var wire 1 V" regA|Q [4] $end
$var wire 1 W" regA|Q [3] $end
$var wire 1 X" regA|Q [2] $end
$var wire 1 Y" regA|Q [1] $end
$var wire 1 Z" regA|Q [0] $end
$var wire 1 [" reg_7|Q [8] $end
$var wire 1 \" reg_7|Q [7] $end
$var wire 1 ]" reg_7|Q [6] $end
$var wire 1 ^" reg_7|Q [5] $end
$var wire 1 _" reg_7|Q [4] $end
$var wire 1 `" reg_7|Q [3] $end
$var wire 1 a" reg_7|Q [2] $end
$var wire 1 b" reg_7|Q [1] $end
$var wire 1 c" reg_7|Q [0] $end
$var wire 1 d" reg_5|Q [8] $end
$var wire 1 e" reg_5|Q [7] $end
$var wire 1 f" reg_5|Q [6] $end
$var wire 1 g" reg_5|Q [5] $end
$var wire 1 h" reg_5|Q [4] $end
$var wire 1 i" reg_5|Q [3] $end
$var wire 1 j" reg_5|Q [2] $end
$var wire 1 k" reg_5|Q [1] $end
$var wire 1 l" reg_5|Q [0] $end
$var wire 1 m" reg_6|Q [8] $end
$var wire 1 n" reg_6|Q [7] $end
$var wire 1 o" reg_6|Q [6] $end
$var wire 1 p" reg_6|Q [5] $end
$var wire 1 q" reg_6|Q [4] $end
$var wire 1 r" reg_6|Q [3] $end
$var wire 1 s" reg_6|Q [2] $end
$var wire 1 t" reg_6|Q [1] $end
$var wire 1 u" reg_6|Q [0] $end
$var wire 1 v" reg_4|Q [8] $end
$var wire 1 w" reg_4|Q [7] $end
$var wire 1 x" reg_4|Q [6] $end
$var wire 1 y" reg_4|Q [5] $end
$var wire 1 z" reg_4|Q [4] $end
$var wire 1 {" reg_4|Q [3] $end
$var wire 1 |" reg_4|Q [2] $end
$var wire 1 }" reg_4|Q [1] $end
$var wire 1 ~" reg_4|Q [0] $end
$var wire 1 !# IR [1] $end
$var wire 1 "# IR [2] $end
$var wire 1 ## IR [3] $end
$var wire 1 $# IR [4] $end
$var wire 1 %# IR [5] $end
$var wire 1 &# IR [6] $end
$var wire 1 '# IR [7] $end
$var wire 1 (# IR [8] $end
$var wire 1 )# IR [9] $end
$var wire 1 *# DIN~combout [8] $end
$var wire 1 +# DIN~combout [7] $end
$var wire 1 ,# DIN~combout [6] $end
$var wire 1 -# DIN~combout [5] $end
$var wire 1 .# DIN~combout [4] $end
$var wire 1 /# DIN~combout [3] $end
$var wire 1 0# DIN~combout [2] $end
$var wire 1 1# DIN~combout [1] $end
$var wire 1 2# DIN~combout [0] $end
$upscope $end
$upscope $end
$enddefinitions $end
#0
$dumpvars
0!
b0 "
0#
0$
0-
0,
0+
0*
0)
0(
0'
0&
0%
0.
x/
00
11
x2
13
14
15
06
07
18
09
0:
0;
1<
0=
0>
0?
1@
0A
0B
0C
1D
0E
0F
0G
0H
0I
0J
0K
0L
0M
0N
0O
0P
0Q
0R
0S
0T
0U
0V
0W
0X
0Y
0Z
0[
0\
0]
0^
0_
0`
0a
0b
0c
0d
0e
0f
0g
0h
0i
0j
0k
0l
1m
0n
0o
0p
1q
0r
0s
0t
0u
0v
0w
0x
0y
0z
0{
0|
1}
0~
0!!
0"!
0#!
0$!
0%!
0&!
1'!
0(!
0)!
1*!
0+!
0,!
0-!
0.!
0/!
00!
01!
02!
03!
04!
05!
16!
07!
08!
09!
0:!
0;!
0<!
0=!
1>!
0?!
0@!
0A!
0B!
0C!
0D!
0E!
0F!
0G!
0H!
0I!
0J!
0K!
0L!
0M!
0N!
0O!
0P!
0Q!
0R!
0S!
0T!
0U!
0V!
0W!
0X!
0Y!
0Z!
0[!
0\!
0]!
0^!
0_!
0`!
0a!
0b!
0c!
0d!
0e!
0f!
0g!
0h!
0i!
0j!
0k!
0l!
0m!
0n!
0o!
0p!
0q!
0r!
0s!
0t!
0u!
0v!
0w!
0x!
0y!
0z!
0{!
0|!
0}!
0~!
0!"
0""
0#"
0$"
0-"
0,"
0+"
0*"
0)"
0("
0'"
0&"
0%"
06"
05"
04"
03"
02"
01"
00"
0/"
0."
0?"
0>"
0="
0<"
0;"
0:"
09"
08"
07"
0H"
0G"
0F"
0E"
0D"
0C"
0B"
0A"
0@"
0Q"
0P"
0O"
0N"
0M"
0L"
0K"
0J"
0I"
0Z"
0Y"
0X"
0W"
0V"
0U"
0T"
0S"
0R"
0c"
0b"
0a"
0`"
0_"
0^"
0]"
0\"
0["
0l"
0k"
0j"
0i"
0h"
0g"
0f"
0e"
0d"
0u"
0t"
0s"
0r"
0q"
0p"
0o"
0n"
0m"
0~"
0}"
0|"
0{"
0z"
0y"
0x"
0w"
0v"
0)#
0(#
0'#
0&#
0%#
0$#
0##
0"#
0!#
02#
01#
00#
0/#
0.#
0-#
0,#
0+#
0*#
$end
#10000
1!
1[
1\
0/
#20000
1#
1$
b1000000 "
0!
1g
1j
1,#
0[
0\
1h
1/
0m
1k
1u!
1##
1n
1r!
1X
1'
1C
#30000
1!
1[
1\
0/
1o
1l
1p
0k
1w
0q
0}
1S!
0n
1.
06!
0*!
#40000
b1000100 "
b1000101 "
0$
b101 "
0!
12#
10#
0,#
0j
0[
0\
1/
1F!
1W!
0u!
1]
1R
1T
0r!
0X
1-
1+
0'
17
1;
0C
#50000
1!
1[
1\
0/
1F"
0o
0l
1H"
0p
1m
0w
1q
1n
1'#
1)#
0##
0n
1}
0S!
0.
16!
1*!
#60000
b1101 "
b1001 "
b1000 "
1$
0!
02#
00#
1/#
1j
0[
0\
1/
0F!
0)#
0W!
0'#
1^!
1&#
0m
1k
0]
0R
0T
1X!
1U
1n
0-
0+
1*
07
0;
1=
#70000
1!
1[
1\
0/
1o
1l
1p
0k
1w
0q
1x
1:!
0n
1.
12!
0>!
17!
0'!
18!
1I
0*!
1T!
19!
1J
1V!
1C!
1E!
1W!
1F!
0^!
1T
1]
1R
0X!
0U
1+
1-
0*
1;
17
0=
#80000
0$
0!
0j
0[
0\
1/
#90000
1!
1[
1\
0/
1+"
1-"
0o
0l
0p
1m
0w
1q
1n
0n
0x
0:!
0.
02!
1>!
07!
1'!
08!
0I
1*!
0T!
09!
0J
0V!
0C!
0E!
0W!
0F!
1^!
0T
0]
0R
1X!
1U
0+
0-
1*
0;
07
1=
#100000
b10001000 "
b10000000 "
b10000001 "
1$
0!
12#
0/#
1+#
1j
0[
0\
1/
1F!
1)#
0^!
0&#
1{!
1"#
0m
1k
1]
1R
0X!
0U
1c
1Y
1n
1-
0*
1&
17
0=
1E
#110000
1!
1[
1\
0/
1o
1l
1p
0k
1t
1r
11!
12!
0>!
17!
0'!
18!
1I
0*!
1T!
19!
1J
1V!
1C!
1E!
1W!
0{!
1T
0c
0Y
1+
0&
1;
0E
#120000
0$
0!
0j
0[
0\
1/
#130000
1!
1[
1\
0/
1u
0l
1X"
1Z"
1v
1f
0t
0r
0<
0;
08
07
1x
01!
1=
19
02!
1)!
1>!
07!
1'!
1;!
06!
08!
0I
1<!
0J
0T!
09!
1J
1R!
1=!
0E!
1E!
1{!
0{!
1c
1Y
1&
0c
0Y
1E
0&
0E
#140000
0!
0[
0\
1/
#150000
1!
1[
1\
0/
0u
1i
1N"
1P"
0v
0f
1|
0q
0x
1Z!
1K!
0}
1I
1S!
0n
1.
0)!
1[!
1O!
0<!
0;!
1]!
1P!
0R!
0=!
1^!
1^
1S
0V!
0C!
1,
1X!
1U
1:
09
0W!
0F!
1*
1>
0=
1;
0T
0]
0R
0+
0-
1?
0;
18
17
0:
19
1<
1;
0>
1=
0?
#160000
0!
0[
0\
1/
#170000
1!
1[
1\
0/
0F"
0o
0i
1E"
1G"
0H"
0p
1m
0|
1q
1n
0n
0Z!
0K!
1}
0J
0I
0S!
0.
0[!
0O!
16!
1*!
0E!
0]!
0P!
1{!
1F!
0^!
0^
0S
1c
1Y
1]
1R
0,
1&
1-
0X!
0U
09
1E
08
07
0*
0=
19
#180000
b11000001 "
b11000000 "
1$
0!
02#
1,#
1j
0[
0\
1/
0F!
0)#
1u!
1##
0m
1k
0]
0R
1r!
1X
1Q
1n
0-
1'
18
17
1C
09
#190000
1!
1[
1\
0/
1o
1l
1p
0k
1t
1r
11!
12!
0>!
17!
0'!
18!
1I
0*!
1N!
1M
1J
1O!
1]!
1E!
1P!
1^!
0{!
0u!
1^
1S
1X!
1U
0c
0Y
0r!
0X
1,
1*
0&
0'
19
1=
0E
0C
#200000
b1000000 "
b0 "
0$
0!
0,#
0+#
0j
0[
0\
1/
#210000
1!
1[
1\
0/
1u
0l
1W"
0X"
1Y"
0Z"
1v
1f
1Z
1Y
1X
1W
1V
0U
1T
0S
1R
16
0t
0r
1>
0=
0;
1:
09
07
1x
1G
1E
1C
1A
0@
0>
1=
0<
0:
19
08
01!
1B
0A
1@
1?
1>
0=
1<
1;
1:
09
0D
0C
0B
1A
0@
0?
0>
1=
0<
0;
1F
0E
1D
1C
1B
0A
1@
1?
1>
0=
0G
0F
1E
0D
0C
0B
1A
0@
0?
1G
1F
0E
1D
1C
1B
0A
0G
0F
1E
0D
0C
1G
1F
0E
0G
#220000
0!
0[
0\
1/
#230000
0#
1!
0g
1[
1\
0h
0/
0N"
0P"
0o
0u
0p
1m
0v
0f
0Z
0Y
0X
0W
0V
1U
0T
1S
0R
06
0"#
0##
0n
0x
1G
0F
1E
1D
1C
0B
1A
1@
1?
1=
1<
1;
19
18
0Q
02!
0G
0E
0C
0A
0=
09
1>!
07!
1'!
08!
0I
1*!
0N!
0M
0J
0O!
0]!
0E!
0P!
0^!
0^
0S
0X!
0U
0,
0*
0:
19
0>
1=
0;
0?
