COMP3222/COMP3222LAB501/simulation/qsim/LAB501.msim.vcd
$comment
	File created using the following command:
		vcd file LAB501.msim.vcd -direction
$end
$date
	Thu Sep 21 14:14:57 2017
$end
$version
	ModelSim Version 10.1d
$end
$timescale
	1ps
$end
$scope module LAB501_vlg_vec_tst $end
$var reg 1 ! KEY [0:0] $end
$var reg 9 " SW [8:0] $end
$var wire 1 # LEDG [0] $end
$var wire 1 $ LEDR [8] $end
$var wire 1 % LEDR [7] $end
$var wire 1 & LEDR [6] $end
$var wire 1 ' LEDR [5] $end
$var wire 1 ( LEDR [4] $end
$var wire 1 ) LEDR [3] $end
$var wire 1 * LEDR [2] $end
$var wire 1 + LEDR [1] $end
$var wire 1 , LEDR [0] $end
$var wire 1 - sampler $end
$scope module i1 $end
$var wire 1 . gnd $end
$var wire 1 / vcc $end
$var wire 1 0 unknown $end
$var tri1 1 1 devclrn $end
$var tri1 1 2 devpor $end
$var tri1 1 3 devoe $end
$var wire 1 4 V[5]~2_combout $end
$var wire 1 5 SW[0]~clkctrl_outclk $end
$var wire 1 6 M5|Q~regout $end
$var wire 1 7 M6|Q~regout $end
$var wire 1 8 M7|Q~regout $end
$var wire 1 9 V[8]~1_combout $end
$var wire 1 : M8|Q~regout $end
$var wire 1 ; V[4]~0_combout $end
$var wire 1 < M4|Q~regout $end
$var wire 1 = z~0_combout $end
$var wire 1 > M0|Q~feeder_combout $end
$var wire 1 ? M0|Q~regout $end
$var wire 1 @ V[1]~3_combout $end
$var wire 1 A M1|Q~regout $end
$var wire 1 B M2|Q~regout $end
$var wire 1 C M3|Q~regout $end
$var wire 1 D KEY~combout [0] $end
$var wire 1 E V [8] $end
$var wire 1 F V [7] $end
$var wire 1 G V [6] $end
$var wire 1 H V [5] $end
$var wire 1 I V [4] $end
$var wire 1 J V [3] $end
$var wire 1 K V [2] $end
$var wire 1 L V [1] $end
$var wire 1 M V [0] $end
$var wire 1 N SW~combout [8] $end
$var wire 1 O SW~combout [7] $end
$var wire 1 P SW~combout [6] $end
$var wire 1 Q SW~combout [5] $end
$var wire 1 R SW~combout [4] $end
$var wire 1 S SW~combout [3] $end
$var wire 1 T SW~combout [2] $end
$var wire 1 U SW~combout [1] $end
$var wire 1 V SW~combout [0] $end
$upscope $end
$upscope $end
$enddefinitions $end
#0
$dumpvars
b1 !
bx00 "
0#
0,
0+
0*
0)
0(
0'
0&
0%
0$
x-
0.
1/
x0
11
12
13
14
05
06
07
08
09
0:
0;
0<
0=
1>
0?
1@
0A
0B
0C
1D
zM
zL
0K
0J
zI
0H
0G
0F
zE
0V
0U
zT
zS
zR
zQ
zP
zO
zN
$end
#5000
b0 !
0D
0-
#10000
b1 !
1D
1-
#15000
b0 !
0D
0-
#20000
bx10 "
b1 !
1U
1D
1-
0@
1H
#25000
b0 !
0D
0-
#30000
bx00 "
b1 !
0U
1D
1-
1@
0H
#35000
b0 !
0D
0-
#40000
b1 !
1D
1-
#45000
b0 !
0D
0-
#50000
b1 !
1D
1-
#55000
b0 !
0D
0-
#60000
b1 !
1D
1-
#65000
b0 !
0D
0-
#70000
b1 !
1D
1-
#75000
b0 !
0D
0-
#80000
b1 !
1D
1-
#85000
b0 !
0D
0-
#90000
bx10 "
b1 !
1U
1D
1-
0@
1H
#95000
b0 !
0D
0-
#100000
b1 !
1D
1-
#105000
b0 !
0D
0-
#110000
b1 !
1D
1-
#115000
b0 !
0D
0-
#120000
b1 !
1D
1-
#125000
b0 !
0D
0-
#130000
b1 !
1D
1-
#135000
b0 !
0D
0-
#140000
b1 !
1D
1-
#145000
b0 !
0D
0-
#150000
b1 !
1D
1-
#155000
b0 !
0D
0-
#160000
b1 !
1D
1-
#165000
b0 !
0D
0-
#170000
bx00 "
b1 !
0U
1D
1-
1@
0H
#175000
b0 !
0D
0-
#180000
b1 !
1D
1-
#185000
b0 !
0D
0-
#240000
b1 !
1D
1-
#245000
b0 !
0D
0-
#250000
b1 !
1D
1-
#255000
b0 !
0D
0-
#260000
b1 !
1D
1-
#265000
b0 !
0D
0-
#270000
b1 !
1D
1-
#275000
b0 !
0D
0-
#280000
b1 !
1D
1-
#285000
b0 !
0D
0-
#290000
b1 !
1D
1-
#295000
b0 !
0D
0-
#300000
bx01 "
b1 !
1V
1D
15
1-
1A
1?
1K
0@
1+
1,
#305000
b0 !
0D
0-
#310000
b1 !
1D
1-
1B
0A
1J
0K
1*
0+
#315000
b0 !
0D
0-
#320000
bx11 "
b1 !
1U
1D
1-
0J
1H
1C
0B
1)
0*
#325000
b0 !
0D
0-
#330000
b1 !
1D
1-
0C
16
1G
04
0)
1'
0H
#335000
b0 !
0D
0-
#340000
b1 !
1D
1-
17
06
1F
0G
1&
0'
#345000
b0 !
0D
0-
#350000
b1 !
1D
1-
18
07
19
0F
1%
0&
#355000
b0 !
0D
0-
#360000
b1 !
1D
1-
1:
08
1=
1$
0%
1#
#365000
b0 !
0D
0-
#370000
b1 !
1D
1-
#375000
b0 !
0D
0-
#380000
b1 !
1D
1-
#385000
b0 !
0D
0-
#390000
b1 !
1D
1-
#395000
b0 !
0D
0-
#400000
b1 !
1D
1-
#405000
b0 !
0D
0-
#410000
bx01 "
b1 !
0U
1D
1-
1@
09
#415000
b0 !
0D
0-
#420000
bx11 "
b1 !
1U
1D
1-
0@
19
1A
0:
0=
09
14
1+
0$
1H
0#
#425000
b0 !
0D
0-
#430000
b1 !
1D
1-
0A
16
1G
04
0+
1'
0H
#435000
b0 !
0D
0-
#440000
b1 !
1D
1-
17
06
1F
0G
1&
0'
#445000
b0 !
0D
0-
#490000
bx01 "
0U
1-
1@
0F
#620000
bx00 "
0V
05
0-
07
0?
14
0&
0,
