COMP3222/COMP3222LAB204/simulation/qsim/LAB204.msim.vcd
$comment
	File created using the following command:
		vcd file LAB204.msim.vcd -direction
$end
$date
	Thu Aug 24 15:23:08 2017
$end
$version
	ModelSim Version 10.1d
$end
$timescale
	1ps
$end
$scope module LAB204_vlg_vec_tst $end
$var reg 10 ! SW [9:0] $end
$var wire 1 " HEX0 [6] $end
$var wire 1 # HEX0 [5] $end
$var wire 1 $ HEX0 [4] $end
$var wire 1 % HEX0 [3] $end
$var wire 1 & HEX0 [2] $end
$var wire 1 ' HEX0 [1] $end
$var wire 1 ( HEX0 [0] $end
$var wire 1 ) HEX1 [6] $end
$var wire 1 * HEX1 [5] $end
$var wire 1 + HEX1 [4] $end
$var wire 1 , HEX1 [3] $end
$var wire 1 - HEX1 [2] $end
$var wire 1 . HEX1 [1] $end
$var wire 1 / HEX1 [0] $end
$var wire 1 0 HEX2 [6] $end
$var wire 1 1 HEX2 [5] $end
$var wire 1 2 HEX2 [4] $end
$var wire 1 3 HEX2 [3] $end
$var wire 1 4 HEX2 [2] $end
$var wire 1 5 HEX2 [1] $end
$var wire 1 6 HEX2 [0] $end
$var wire 1 7 HEX3 [6] $end
$var wire 1 8 HEX3 [5] $end
$var wire 1 9 HEX3 [4] $end
$var wire 1 : HEX3 [3] $end
$var wire 1 ; HEX3 [2] $end
$var wire 1 < HEX3 [1] $end
$var wire 1 = HEX3 [0] $end
$var wire 1 > LEDG [7] $end
$var wire 1 ? LEDG [6] $end
$var wire 1 @ LEDG [5] $end
$var wire 1 A LEDG [4] $end
$var wire 1 B LEDG [3] $end
$var wire 1 C LEDG [2] $end
$var wire 1 D LEDG [1] $end
$var wire 1 E LEDG [0] $end
$var wire 1 F LEDR [9] $end
$var wire 1 G LEDR [8] $end
$var wire 1 H LEDR [7] $end
$var wire 1 I LEDR [6] $end
$var wire 1 J LEDR [5] $end
$var wire 1 K LEDR [4] $end
$var wire 1 L LEDR [3] $end
$var wire 1 M LEDR [2] $end
$var wire 1 N LEDR [1] $end
$var wire 1 O LEDR [0] $end
$var wire 1 P sampler $end
$scope module i1 $end
$var wire 1 Q gnd $end
$var wire 1 R vcc $end
$var wire 1 S unknown $end
$var tri1 1 T devclrn $end
$var tri1 1 U devpor $end
$var tri1 1 V devoe $end
$var wire 1 W step2|Cout~1_combout $end
$var wire 1 X step2|Cout~0_combout $end
$var wire 1 Y step0|Cout~0_combout $end
$var wire 1 Z step2|Cout~2_combout $end
$var wire 1 [ step3|Cout~0_combout $end
$var wire 1 \ step3|s~combout $end
$var wire 1 ] step1|s~0_combout $end
$var wire 1 ^ M2|M[1]~0_combout $end
$var wire 1 _ step2|s~0_combout $end
$var wire 1 ` step2|s~combout $end
$var wire 1 a M2|M[3]~1_combout $end
$var wire 1 b step0|s~0_combout $end
$var wire 1 c M2|M[2]~2_combout $end
$var wire 1 d M3|Display0~0_combout $end
$var wire 1 e M3|Display0~1_combout $end
$var wire 1 f M3|Display0~2_combout $end
$var wire 1 g M3|Display0~3_combout $end
$var wire 1 h M3|Display0~4_combout $end
$var wire 1 i M3|Display0~5_combout $end
$var wire 1 j M3|Display0~6_combout $end
$var wire 1 k M0|z~0_combout $end
$var wire 1 l M6|Display0~0_combout $end
$var wire 1 m M6|Display0~1_combout $end
$var wire 1 n M6|Display0~2_combout $end
$var wire 1 o M6|Display0~3_combout $end
$var wire 1 p M6|Display0~4_combout $end
$var wire 1 q M6|Display0~5_combout $end
$var wire 1 r M6|Display0~6_combout $end
$var wire 1 s M5|Display0~0_combout $end
$var wire 1 t M5|Display0~1_combout $end
$var wire 1 u M5|Display0~2_combout $end
$var wire 1 v M5|Display0~3_combout $end
$var wire 1 w M5|Display0~4_combout $end
$var wire 1 x M5|Display0~5_combout $end
$var wire 1 y M5|Display0~6_combout $end
$var wire 1 z LEDG~0_combout $end
$var wire 1 { LEDG~1_combout $end
$var wire 1 | SW~combout [9] $end
$var wire 1 } SW~combout [8] $end
$var wire 1 ~ SW~combout [7] $end
$var wire 1 !! SW~combout [6] $end
$var wire 1 "! SW~combout [5] $end
$var wire 1 #! SW~combout [4] $end
$var wire 1 $! SW~combout [3] $end
$var wire 1 %! SW~combout [2] $end
$var wire 1 &! SW~combout [1] $end
$var wire 1 '! SW~combout [0] $end
$upscope $end
$upscope $end
$enddefinitions $end
#0
$dumpvars
b0 !
0(
0'
0&
0%
0$
0#
1"
0/
0.
0-
0,
0+
0*
1)
06
05
04
03
02
01
10
0=
0<
0;
0:
09
08
17
0E
0D
0C
0B
0A
0@
0?
0>
0O
0N
0M
0L
0K
0J
0I
0H
0G
0F
xP
0Q
1R
xS
1T
1U
1V
0W
0X
0Y
0Z
0[
0\
0]
0^
0_
0`
0a
0b
0c
1d
1e
1f
1g
1h
1i
0j
0k
1l
1m
1n
1o
0p
1q
0r
1s
1t
1u
1v
0w
1x
0y
0z
0{
0'!
0&!
0%!
0$!
0#!
0"!
0!!
0~
0}
0|
$end
#5000
b1 !
1'!
0P
0q
1p
0o
0l
1b
1O
0i
0h
0g
0d
12
1E
11
13
16
1#
1$
1%
1(
#10000
b11 !
b10 !
0'!
1&!
1P
1r
0p
1o
0n
1l
0b
1]
0O
1N
1i
1h
1g
1d
1^
02
0E
1D
00
03
14
06
1j
0i
0f
0#
0$
0%
0(
0"
1#
1&
#15000
b11 !
1'!
0P
1p
1n
1b
1O
0h
1f
12
1E
04
1$
0&
#20000
b111 !
b101 !
b100 !
0'!
0&!
1%!
1P
1q
0o
0l
0b
0]
1_
1W
0O
0N
1M
1h
0f
0^
1`
0E
0D
01
13
16
0j
1i
1f
1c
1C
0$
1&
1j
0h
0g
0d
1"
0#
0&
0"
1$
1%
1(
#25000
b101 !
1'!
0P
1o
0m
1l
1b
1O
1g
0e
1d
1E
03
15
06
0%
1'
0(
#30000
b111 !
b110 !
0'!
1&!
1P
0p
0b
1]
0O
1N
0g
1e
0d
1^
02
0E
1D
1h
1g
0e
1d
1%
0'
1(
0$
0%
1'
0(
#35000
b111 !
1'!
0P
0r
0q
1p
0o
1m
1b
1O
0j
0i
0h
0g
1e
12
1E
10
11
13
05
1"
1#
1$
1%
0'
#40000
b1111 !
b1011 !
b1001 !
b1000 !
0'!
0&!
0%!
1$!
1P
1r
1q
0p
1o
0b
0]
0_
0W
1\
0O
0N
0M
1L
1j
1i
1h
1g
0e
1k
0c
0`
02
0E
0D
1B
00
01
03
0i
0f
1e
0k
1a
0^
1*
1+
1,
1/
0C
0"
0#
0$
0%
1'
1i
1f
0*
0+
0,
0/
1#
1&
0'
0#
0&
#45000
b1001 !
1'!
0P
1p
1b
1O
0h
12
1E
1$
#50000
b1011 !
b1010 !
0'!
1&!
1P
0p
0n
0b
1z
1]
0O
1N
1h
1{
1k
0a
02
0E
1D
14
0j
1>
1*
1+
1,
1/
0$
1"
#55000
b1011 !
1'!
0P
1p
1n
1b
1O
0i
0h
0g
0d
12
1E
04
1#
1$
1%
1(
#60000
b1111 !
b1101 !
b1100 !
0'!
0&!
1%!
1P
0b
0]
1_
1W
0O
0N
1M
1i
1h
1g
1d
0k
1a
1`
0E
0D
1j
1k
0a
1^
0*
0+
0,
0/
1C
0#
0$
0%
0(
0i
0f
1*
1+
1,
1/
0"
1#
1&
#65000
b1101 !
1'!
0P
0m
1b
1O
0h
1f
1E
15
1$
0&
#70000
b1111 !
b1110 !
0'!
1&!
1P
0p
0b
1]
0O
1N
1h
0f
1c
0^
02
0E
1D
1i
0h
0g
1f
0d
0$
1&
0#
1$
1%
0&
1(
#75000
b1111 !
1'!
0P
1p
1m
1b
1O
1g
0e
1d
12
1E
05
0%
1'
0(
#80000
b11111 !
b10111 !
b10011 !
b10001 !
b10000 !
0'!
0&!
0%!
0$!
1#!
1P
0r
0p
0z
0]
0_
0W
0\
0x
1w
0v
0s
0O
0N
0M
0L
1K
0{
0k
0`
02
0D
0B
19
10
18
1:
1=
0c
0>
0*
0+
0,
0/
0C
0j
0i
0g
1e
0d
1"
1#
1%
0'
1(
#85000
b10001 !
1'!
0P
0q
1p
0o
0l
0b
1Y
1O
1i
1h
1g
1d
1]
12
0E
11
13
16
1^
1D
0#
0$
0%
0(
1j
0i
0f
0"
1#
1&
#90000
b10011 !
b10010 !
0'!
1&!
1P
1r
0p
1o
0n
1l
1b
0Y
1`
0]
0O
1N
0h
1f
0`
1]
1c
0^
02
1E
1C
0D
00
03
14
06
0c
1^
1i
0e
0C
1D
1$
0&
0i
1e
0#
1'
1#
0'
#95000
b10011 !
1'!
0P
1p
1n
0b
1Y
1O
1h
0f
1`
0]
12
0E
04
1c
0^
1C
0D
0$
1&
1i
0h
0g
1f
0d
0#
1$
1%
0&
1(
#100000
b10111 !
b10101 !
b10100 !
0'!
0&!
1%!
1P
1q
0o
0l
1b
0Y
0`
1]
1_
1W
0O
0N
1M
1g
0e
1d
1`
0]
0c
1^
1E
0C
1D
01
13
16
1c
0^
0i
1e
1C
0D
0%
1'
0(
1i
0e
1#
0'
0#
1'
#105000
b10101 !
1'!
0P
1o
0m
1l
0b
1Y
1O
0g
1e
0d
1]
0E
03
15
06
1^
1D
1%
0'
1(
1h
1g
0e
1d
0$
0%
1'
0(
#110000
b10111 !
b10110 !
0'!
1&!
1P
0p
1b
0Y
0`
0]
1Z
0O
1N
0j
0i
0h
0g
1e
1`
1]
0Z
0c
0^
1\
02
1E
0C
0D
1k
1c
0\
0d
1C
1D
1B
1"
1#
1$
1%
0'
1j
1i
1g
0e
1d
0k
1^
1*
1+
1,
1/
0B
1(
0j
0i
0g
1e
0*
0+
0,
0/
0"
0#
0%
1'
0(
1"
1#
1%
0'
#115000
b10111 !
1'!
0P
0r
0q
1p
0o
1m
0b
1Y
1O
1j
1i
1h
1g
0e
0`
0]
1Z
12
0E
10
11
13
05
0c
0^
1\
0C
0D
0"
0#
0$
0%
1'
0j
1e
1a
1B
1j
1"
0'
0"
#120000
b11111 !
b11011 !
b11001 !
b11000 !
0'!
0&!
0%!
1$!
1P
1r
1q
0p
1o
1b
0Y
1`
1]
0Z
0_
0W
0\
1[
0O
0N
0M
1L
0h
0`
0]
1k
0a
1\
0[
02
1E
1C
1D
0B
1A
00
01
03
0k
1a
0j
0i
0g
0d
0C
0D
1*
1+
1,
1/
1B
0A
1$
1j
1i
1g
1d
0*
0+
0,
0/
1"
1#
1%
1(
0"
0#
0%
0(
#125000
b11001 !
1'!
0P
1p
0b
1Y
1O
1h
1]
12
0E
1k
0a
1D
0$
0j
1*
1+
1,
1/
1"
#130000
b11011 !
b11010 !
0'!
1&!
1P
0p
0n
1b
0Y
1z
1`
0]
0O
1N
0i
0h
0g
0d
0`
1]
1{
1^
02
1E
1C
0D
14
0^
1j
1g
1d
0C
1D
1>
1#
1$
1%
1(
0j
0g
0d
0"
0%
0(
1"
1%
1(
#135000
b11011 !
1'!
0P
1p
1n
0b
1Y
1O
1i
1h
1g
1d
1`
0]
12
0E
04
1^
1C
0D
0#
0$
0%
0(
1j
0i
0f
0"
1#
1&
#140000
b11111 !
b11101 !
b11100 !
0'!
0&!
1%!
1P
1b
0Y
0`
1]
1_
1W
0O
0N
1M
0h
1f
1`
0]
0^
1E
0C
1D
1^
0j
0g
0d
1C
0D
1$
0&
1j
1g
1d
1"
1%
1(
0"
0%
0(
#145000
b11101 !
1'!
0P
0m
0b
1Y
1O
1h
0f
1]
0E
15
1c
0^
1D
0$
1&
1i
0h
0g
1f
0d
0#
1$
1%
0&
1(
#150000
b11111 !
b11110 !
0'!
1&!
1P
0p
1b
0Y
0`
0]
1Z
0O
1N
1g
0e
1d
1`
1]
0Z
0k
0c
1a
0\
1[
02
1E
0C
0D
1k
0a
1\
0[
1e
1C
1D
0*
0+
0,
0/
0B
1A
0%
1'
0(
0j
0i
0g
0d
1c
1*
1+
1,
1/
1B
0A
0'
1j
1i
1g
0e
1d
1"
1#
1%
1(
0"
0#
0%
1'
0(
#155000
b11111 !
1'!
0P
1p
1m
0b
1Y
1O
0g
1e
0d
0`
0]
1Z
12
0E
05
0k
0c
1a
0\
1[
0C
0D
1%
0'
1(
1h
1g
1d
1k
1c
0a
1^
0*
0+
0,
0/
0B
1A
0e
1*
1+
1,
1/
0$
0%
0(
1'
#160000
b111111 !
b101111 !
b100111 !
b100011 !
b100001 !
b100000 !
0'!
0&!
0%!
0$!
0#!
1"!
1P
0r
0p
0Y
0z
0_
0W
1\
0[
1y
0w
1v
0u
1s
0O
0N
0M
0L
0K
1J
1]
0Z
0{
0k
0c
1a
0^
02
1B
0A
09
10
07
0:
1;
0=
1k
0a
0\
1e
1D
0>
0*
0+
0,
0/
0j
0k
1^
1*
1+
1,
1/
0B
0'
1j
0i
0f
0*
0+
0,
0/
1"
0"
1#
1&
#165000
b100001 !
1'!
0P
0q
1p
0o
0l
1b
1O
0h
1f
12
1E
11
13
16
1$
0&
#170000
b100011 !
b100010 !
0'!
1&!
1P
1r
0p
1o
0n
1l
0b
1`
0]
0O
1N
1h
0f
1c
0^
02
0E
1C
0D
00
03
14
06
1i
0h
0g
1f
0d
0$
1&
0#
1$
1%
0&
1(
#175000
b100011 !
1'!
0P
1p
1n
1b
1O
1g
0e
1d
12
1E
04
0%
1'
0(
#180000
b100111 !
b100101 !
b100100 !
0'!
0&!
1%!
1P
1q
0o
0l
0b
0`
1]
1_
1W
0O
0N
1M
0g
1e
0d
0c
1^
1`
0E
0C
1D
01
13
16
0i
1h
1g
0f
1d
1c
1C
1%
0'
1(
1i
1f
0e
1#
0$
0%
1&
0(
0#
0&
1'
#185000
b100101 !
1'!
0P
1o
0m
1l
1b
1O
0j
0i
0h
0g
1e
1E
03
15
06
1"
1#
1$
1%
0'
#190000
b100111 !
b100110 !
0'!
1&!
1P
0p
0b
0`
0]
1Z
0O
1N
1j
1i
1h
1g
0e
0c
0^
1\
02
0E
0C
0D
0j
1e
1a
1B
0"
0#
0$
0%
1'
1j
1"
0'
0"
#195000
b100111 !
1'!
0P
0r
0q
1p
0o
1m
1b
1O
0h
12
1E
10
11
13
05
1$
#200000
b101111 !
b101011 !
b101001 !
b101000 !
0'!
0&!
0%!
1$!
1P
1r
1q
0p
1o
0b
1`
1]
0Z
0_
0W
0\
1[
0O
0N
0M
1L
1h
1k
0a
1\
0[
0`
02
0E
1C
1D
0B
1A
00
01
03
0j
1*
1+
1,
1/
1B
0A
0C
0$
1"
#205000
b101001 !
1'!
0P
1p
1b
1O
0i
0h
0g
0d
12
1E
1#
1$
1%
1(
#210000
b101011 !
b101010 !
0'!
1&!
1P
0p
0n
0b
1z
1`
0]
0O
1N
1i
1h
1g
1d
1{
1^
02
0E
1C
0D
14
1j
0i
0f
1>
0#
0$
0%
0(
0"
1#
1&
#215000
b101011 !
1'!
0P
1p
1n
1b
1O
0h
1f
12
1E
04
1$
0&
#220000
b101111 !
b101101 !
b101100 !
0'!
0&!
1%!
1P
0b
0`
1]
1_
1W
0O
0N
1M
1h
0f
0^
1`
0E
0C
1D
0j
1i
1f
1c
1C
0$
1&
1j
0h
0g
0d
1"
0#
0&
0"
1$
1%
1(
#225000
b101101 !
1'!
0P
0m
1b
1O
1g
0e
1d
1E
15
0%
1'
0(
#230000
b101111 !
b101110 !
0'!
1&!
1P
0p
0b
0`
0]
1Z
0O
1N
0g
1e
0d
0k
0c
1a
0\
1[
02
0E
0C
0D
1h
1g
1d
1k
1c
0a
1^
0*
0+
0,
0/
0B
1A
1%
0'
1(
0e
1*
1+
1,
1/
0$
0%
0(
1'
#235000
b101111 !
1'!
0P
1p
1m
1b
1O
0j
0i
0h
0g
1e
12
1E
05
1"
1#
1$
1%
0'
#240000
b111111 !
b110111 !
b110011 !
b110001 !
b110000 !
0'!
0&!
0%!
0$!
1#!
1P
0r
0p
0z
1`
1]
0Z
0_
0W
1\
0[
1w
1u
0O
0N
0M
0L
1K
0{
0^
0\
0`
02
1C
1D
1B
0A
19
10
0;
1j
1i
1g
0e
0k
0c
1^
0>
0B
0C
0i
1e
0*
0+
0,
0/
0"
0#
0%
1'
1#
0'
#245000
b110001 !
1'!
0P
0q
1p
0o
0l
0b
1Y
1O
1h
0f
1`
0]
12
0E
11
13
16
1c
0^
1C
0D
0$
1&
1i
0h
0g
1f
0d
0#
1$
1%
0&
1(
#250000
b110011 !
b110010 !
0'!
1&!
1P
1r
0p
1o
0n
1l
1b
0Y
1]
0O
1N
1g
0e
1d
0]
1^
02
1E
1D
00
03
14
06
0^
0j
0i
0g
1e
0D
0%
1'
0(
1j
1i
1g
0e
1"
1#
1%
0'
0"
0#
0%
1'
#255000
b110011 !
1'!
0P
1p
1n
0b
1Y
1O
0g
1e
0d
1]
12
0E
04
1^
1D
1%
0'
1(
1h
1g
0e
1d
0$
0%
1'
0(
#260000
b110111 !
b110101 !
b110100 !
0'!
0&!
1%!
1P
1q
0o
0l
1b
0Y
0]
1_
1W
0O
0N
1M
0j
0i
0h
0g
1e
1]
0^
1E
0D
01
13
16
1^
1j
1i
1g
0e
1D
1"
1#
1$
1%
0'
0j
0i
0g
1e
0"
0#
0%
1'
1"
1#
1%
0'
#265000
b110101 !
1'!
0P
1o
0m
1l
0b
1Y
1O
1j
1i
1h
1g
0e
0`
0]
1Z
0E
03
15
06
0c
0^
1\
0C
0D
0"
0#
0$
0%
1'
0j
1e
1a
1B
1j
1"
0'
0"
#270000
b110111 !
b110110 !
0'!
1&!
1P
0p
1b
0Y
1]
0O
1N
0h
0]
1k
0a
02
1E
1D
0k
1a
0j
0i
0g
0d
0D
1*
1+
1,
1/
1$
1j
1i
1g
1d
0*
0+
0,
0/
1"
1#
1%
1(
0"
0#
0%
0(
#275000
b110111 !
1'!
0P
0r
0q
1p
0o
1m
0b
1Y
1O
1h
1]
12
0E
10
11
13
05
1k
0a
1D
0$
0j
1*
1+
1,
1/
1"
#280000
b111111 !
b111011 !
b111001 !
b111000 !
0'!
0&!
0%!
1$!
1P
1r
1q
0p
1o
1b
0Y
0]
0_
0W
0\
1[
0O
0N
0M
1L
0i
0h
0g
0d
1]
0Z
1c
1^
02
1E
0D
0B
1A
00
01
03
0c
1a
0^
1\
0[
1d
1D
1#
1$
1%
1(
1j
1i
1g
0a
1B
0A
0(
0j
0i
0g
0d
0"
0#
0%
1"
1#
1%
1(
#285000
b111001 !
1'!
0P
1p
0b
1Y
1O
1i
1h
1g
1d
1`
0]
12
0E
1^
1C
0D
0#
0$
0%
0(
1j
0i
0f
0"
1#
1&
#290000
b111011 !
b111010 !
0'!
1&!
1P
0p
0n
1b
0Y
1z
1]
0O
1N
0h
1f
0]
1{
1c
0^
02
1E
1D
14
0c
1^
1i
0e
0D
1>
1$
0&
0i
1e
0#
1'
1#
0'
#295000
b111011 !
1'!
0P
1p
1n
0b
1Y
1O
1h
0f
1]
12
0E
04
1c
0^
1D
0$
1&
1i
0h
0g
1f
0d
0#
1$
1%
0&
1(
#300000
b111111 !
b111101 !
b111100 !
0'!
0&!
1%!
1P
1b
0Y
0]
1_
1W
0O
0N
1M
1g
0e
1d
1]
0c
1^
1E
0D
1c
0^
0i
1e
1D
0%
1'
0(
1i
0e
1#
0'
0#
1'
#305000
b111101 !
1'!
0P
0m
0b
1Y
1O
0g
1e
0d
0`
0]
1Z
0E
15
0k
0c
1a
0\
1[
0C
0D
1%
0'
1(
1h
1g
1d
1k
1c
0a
1^
0*
0+
0,
0/
0B
1A
0e
1*
1+
1,
1/
0$
0%
0(
1'
#310000
b111111 !
b111110 !
0'!
1&!
1P
0p
1b
0Y
1]
0O
1N
0j
0i
0h
0g
1e
0]
0c
1a
0^
02
1E
1D
1c
0a
1^
1j
1i
1g
0D
1"
1#
1$
1%
0'
0j
0i
0g
0"
0#
0%
1"
1#
1%
#315000
b111111 !
1'!
0P
1p
1m
0b
1Y
1O
1j
1i
1h
1g
0e
1]
12
0E
05
0c
1a
0^
1D
0"
0#
0$
0%
1'
1e
0'
#320000
b1111111 !
b1011111 !
b1001111 !
b1000111 !
b1000011 !
b1000001 !
b1000000 !
0'!
0&!
0%!
0$!
0#!
0"!
1!!
1P
0r
0p
0Y
0z
1`
0Z
1\
0[
1x
0v
0s
0O
0N
0M
0L
0K
0J
1I
0]
0{
1c
0a
0\
02
1C
1B
0A
10
08
1:
1=
0k
0h
0g
0d
0D
0>
0B
0*
0+
0,
0/
1$
1%
1(
#325000
b1000001 !
1'!
0P
0q
1p
0o
0l
1b
1O
1g
0e
1d
12
1E
11
13
16
0%
1'
0(
#330000
b1000011 !
b1000010 !
0'!
1&!
1P
1r
0p
1o
0n
1l
0b
1]
0O
1N
0g
1e
0d
1^
02
0E
1D
00
03
14
06
1h
1g
0e
1d
1%
0'
1(
0$
0%
1'
0(
#335000
b1000011 !
1'!
0P
1p
1n
1b
1O
0j
0i
0h
0g
1e
12
1E
04
1"
1#
1$
1%
0'
#340000
b1000111 !
b1000101 !
b1000100 !
0'!
0&!
1%!
1P
1q
0o
0l
0b
0]
0_
1X
0O
0N
1M
1j
1i
1h
1g
0e
0^
0`
1\
0E
0D
01
13
16
0h
0g
1e
0d
0c
1a
0C
1B
0"
0#
0$
0%
1'
1h
1g
1d
1$
1%
0'
1(
0$
0%
0(
#345000
b1000101 !
1'!
0P
1o
0m
1l
1b
1O
0h
1E
03
15
06
1$
#350000
b1000111 !
b1000110 !
0'!
1&!
1P
0p
0b
1]
0O
1N
1h
1k
0a
02
0E
1D
0j
1*
1+
1,
1/
0$
1"
#355000
b1000111 !
1'!
0P
0r
0q
1p
0o
1m
1b
1O
0i
0h
0g
0d
12
1E
10
11
13
05
1#
1$
1%
1(
#360000
b1001111 !
b1001011 !
b1001001 !
b1001000 !
0'!
0&!
0%!
1$!
1P
1r
1q
0p
1o
0b
0]
1_
0X
0\
1[
0O
0N
0M
1L
1i
1h
1g
1d
1c
1^
1`
1\
0[
02
0E
0D
0B
1A
00
01
03
1j
0e
0c
1C
1B
0A
0#
0$
0%
0(
0i
0f
1e
0"
1'
1#
1&
0'
#365000
b1001001 !
1'!
0P
1p
1b
1O
0h
1f
12
1E
1$
0&
#370000
b1001011 !
b1001010 !
0'!
1&!
1P
0p
0n
0b
1z
1]
0O
1N
1h
0f
1{
1c
0^
02
0E
1D
14
1i
0h
0g
1f
0d
1>
0$
1&
0#
1$
1%
0&
1(
#375000
b1001011 !
1'!
0P
1p
1n
1b
1O
1g
0e
1d
12
1E
04
0%
1'
0(
#380000
b1001111 !
b1001101 !
b1001100 !
0'!
0&!
1%!
1P
0b
0]
0_
1X
0O
0N
1M
0g
1e
0d
0c
1^
0`
0\
1[
0E
0D
0i
1h
1g
0f
1d
1c
0C
0B
1A
1%
0'
1(
1i
1f
0e
1#
0$
0%
1&
0(
0#
0&
1'
#385000
b1001101 !
1'!
0P
0m
1b
1O
0j
0i
0h
0g
1e
1E
15
1"
1#
1$
1%
0'
#390000
b1001111 !
b1001110 !
0'!
1&!
1P
0p
0b
1]
0O
1N
1j
1i
1h
1g
0e
0c
1a
0^
02
0E
1D
1e
0"
0#
0$
0%
1'
0'
#395000
b1001111 !
1'!
0P
1p
1m
1b
1O
0h
12
1E
05
1$
#400000
b1011111 !
b1010111 !
b1010011 !
b1010001 !
b1010000 !
0'!
0&!
0%!
0$!
1#!
1P
0r
0p
0z
0]
1_
0X
1\
0[
1v
0t
1s
0O
0N
0M
0L
1K
0{
0k
1`
0\
02
0D
1B
0A
10
0:
1<
0=
1c
0a
0>
0*
0+
0,
0/
1C
0B
0e
1'
#405000
b1010001 !
1'!
0P
0q
1p
0o
0l
0b
1Y
1O
0g
1e
0d
1]
12
0E
11
13
16
1^
1D
1%
0'
1(
1h
1g
0e
1d
0$
0%
1'
0(
#410000
b1010011 !
b1010010 !
0'!
1&!
1P
1r
0p
1o
0n
1l
1b
0Y
0`
0]
1Z
0O
1N
0j
0i
0h
0g
1e
1`
1]
0Z
0c
0^
1\
02
1E
0C
0D
00
03
14
06
1k
1c
0\
0d
1C
1D
1B
1"
1#
1$
1%
0'
1j
1i
1g
0e
1d
0k
1^
1*
1+
1,
1/
0B
1(
0j
0i
0g
1e
0*
0+
0,
0/
0"
0#
0%
1'
0(
1"
1#
1%
0'
#415000
b1010011 !
1'!
0P
1p
1n
0b
1Y
1O
1j
1i
1h
1g
0e
0`
0]
1Z
12
0E
04
0c
0^
1\
0C
0D
0"
0#
0$
0%
1'
0j
1e
1a
1B
1j
1"
0'
0"
#420000
b1010111 !
b1010101 !
b1010100 !
0'!
0&!
1%!
1P
1q
0o
0l
1b
0Y
1`
1]
0Z
0_
1X
0O
0N
1M
0h
0`
0]
1k
1c
0a
1E
1C
1D
01
13
16
0k
0c
1a
0e
0C
0D
1*
1+
1,
1/
1$
1e
0*
0+
0,
0/
1'
0'
#425000
b1010101 !
1'!
0P
1o
0m
1l
0b
1Y
1O
1h
1]
0E
03
15
06
1k
0a
1D
0$
0j
1*
1+
1,
1/
1"
#430000
b1010111 !
b1010110 !
0'!
1&!
1P
0p
1b
0Y
1`
0]
1Z
0O
1N
0i
0h
0g
0d
0`
1]
0Z
1^
02
1E
1C
0D
0^
1j
1g
1d
0C
1D
1#
1$
1%
1(
0j
0g
0d
0"
0%
0(
1"
1%
1(
#435000
b1010111 !
1'!
0P
0r
0q
1p
0o
1m
0b
1Y
1O
1i
1h
1g
1d
1`
0]
1Z
12
0E
10
11
13
05
1^
1C
0D
0#
0$
0%
0(
1j
0i
0f
0"
1#
1&
#440000
b1011111 !
b1011011 !
b1011001 !
b1011000 !
0'!
0&!
0%!
1$!
1P
1r
1q
0p
1o
1b
0Y
0`
1]
0Z
1_
0X
0\
1[
0O
0N
0M
1L
0h
1f
1`
0]
1a
0^
1\
0[
02
1E
0C
1D
0B
1A
00
01
03
0a
1^
1i
1C
0D
1B
0A
1$
0&
0i
0#
1#
#445000
b1011001 !
1'!
0P
1p
0b
1Y
1O
1h
0f
1]
12
0E
1c
0^
1D
0$
1&
1i
0h
0g
1f
0d
0#
1$
1%
0&
1(
#450000
b1011011 !
b1011010 !
0'!
1&!
1P
0p
0n
1b
0Y
1z
0`
0]
1Z
0O
1N
1g
0e
1d
1`
1]
0Z
1{
0k
0c
1a
0\
1[
02
1E
0C
0D
14
1k
0a
1\
0[
1e
1C
1D
1>
0*
0+
0,
0/
0B
1A
0%
1'
0(
0j
0i
0g
0d
1c
1*
1+
1,
1/
1B
0A
0'
1j
1i
1g
0e
1d
1"
1#
1%
1(
0"
0#
0%
1'
0(
#455000
b1011011 !
1'!
0P
1p
1n
0b
1Y
1O
0g
1e
0d
0`
0]
1Z
12
0E
04
0k
0c
1a
0\
1[
0C
0D
1%
0'
1(
1h
1g
1d
1k
1c
0a
1^
0*
0+
0,
0/
0B
1A
0e
1*
1+
1,
1/
0$
0%
0(
1'
#460000
b1011111 !
b1011101 !
b1011100 !
0'!
0&!
1%!
1P
1b
0Y
1`
1]
0Z
0_
1X
0O
0N
1M
0j
0i
0h
0g
1e
0`
0]
0c
0^
1E
1C
1D
1c
1^
0d
0C
0D
1"
1#
1$
1%
0'
1d
1(
0(
#465000
b1011101 !
1'!
0P
0m
0b
1Y
1O
1j
1i
1h
1g
0e
1]
0E
15
0c
1a
0^
1D
0"
0#
0$
0%
1'
1e
0'
#470000
b1011111 !
b1011110 !
0'!
1&!
1P
0p
1b
0Y
1`
0]
1Z
0O
1N
0h
0`
1]
0Z
0a
1^
02
1E
1C
0D
1a
0^
0i
0C
1D
1$
1i
1#
0#
#475000
b1011111 !
1'!
0P
1p
1m
0b
1Y
1O
1h
1`
0]
1Z
12
0E
05
0a
1^
1C
0D
0$
0i
0f
1#
1&
#480000
b1111111 !
b1101111 !
b1100111 !
b1100011 !
b1100001 !
b1100000 !
0'!
0&!
0%!
0$!
0#!
1"!
1P
0r
0p
0Y
0z
1_
0X
1\
0[
0w
0O
0N
0M
0L
0K
1J
1]
0Z
0{
02
1B
0A
09
10
1c
0^
0\
1D
0>
1i
0h
0g
1f
0d
0k
1^
0B
1h
1g
0e
1d
0*
0+
0,
0/
0#
1$
1%
0&
1(
0$
0%
1'
0(
#485000
b1100001 !
1'!
0P
0q
1p
0o
0l
1b
1O
0j
0i
0h
0g
1e
12
1E
11
13
16
1"
1#
1$
1%
0'
#490000
b1100011 !
b1100010 !
0'!
1&!
1P
1r
0p
1o
0n
1l
0b
0`
0]
1Z
0O
1N
1j
1i
1h
1g
0e
0c
0^
1\
02
0E
0C
0D
00
03
14
06
0j
1e
1a
1B
0"
0#
0$
0%
1'
1j
1"
0'
0"
#495000
b1100011 !
1'!
0P
1p
1n
1b
1O
0h
12
1E
04
1$
#500000
b1100111 !
b1100101 !
b1100100 !
0'!
0&!
1%!
1P
1q
0o
0l
0b
1`
1]
0Z
0_
1X
0O
0N
1M
1h
1k
1c
0a
0`
0E
1C
1D
01
13
16
0h
0g
0d
0c
1*
1+
1,
1/
0C
0$
0j
1h
1g
1d
1$
1%
1(
1"
0$
0%
0(
#505000
b1100101 !
1'!
0P
1o
0m
1l
1b
1O
0i
0h
0g
0d
1E
03
15
06
1#
1$
1%
1(
#510000
b1100111 !
b1100110 !
0'!
1&!
1P
0p
0b
1`
0]
1Z
0O
1N
1i
1h
1g
1d
1^
02
0E
1C
0D
1j
0i
0f
0#
0$
0%
0(
0"
1#
1&
#515000
b1100111 !
1'!
0P
0r
0q
1p
0o
1m
1b
1O
0h
1f
12
1E
10
11
13
05
1$
0&
#520000
b1101111 !
b1101011 !
b1101001 !
b1101000 !
0'!
0&!
0%!
1$!
1P
1r
1q
0p
1o
0b
0`
1]
0Z
1_
0X
0\
1[
0O
0N
0M
1L
1h
0f
1a
0^
1\
0[
1`
02
0E
0C
1D
0B
1A
00
01
03
1i
1f
1c
0a
1B
0A
1C
0$
1&
0h
0g
0d
0#
0&
1$
1%
1(
